Id;Translation

G_GENERAL;General
G_TITLE_SUFFIX;Template
G_RIGHTS;Droits
G_NAME;Nom
G_FIRSTNAME;Prénom
G_LASTNAME;Nom de famille
G_DESCRIPTION;Description
G_DETAIL;Detail
G_DELETE;Supprimer
G_DELETE_SUCCES;
G_SAVING;Saving, please wait...
G_SAVED;Saufgardez!
G_SAVE_ERROR;Erreur en saufgardez!
G_UPDATE_CONFLICT;Conflit à la mise à jour!
G_NOT_SAVED;It is not possible to delete a record that isn't saved yet
G_D_CONFLICT;Conflict while deleting!
G_USERNAME;Nom d'utilisateur
G_USERTYPE;User type
G_CUSTOMER;Customer
G_SUPPLIER;Supplier
G_EMAIL;E-mail
G_TYPE;Type
G_ADD;
G_CANCEL;
G_START;Démarrer
G_CATEGORY;Catégorie
G_SUPPLIERNAME;Nom du fournisseur
G_DIAMETER;Diamètre
G_LANDINGZONENAME;Nom du zone d'atterrissage
G_LANDINGZONEBASE;Zone d'atterrissage
G_AXISCOUNT;Nombre d'axes
G_SECTIONCOUNT;Nombre de sections
G_NUMBEROFAXES;Nombre d'axes
G_APICALCLEARANCE;
G_MIDPERIPHCLEARANCE;
G_SETTLING;
G_CONTROLPOINTS;
G_CONTROLPOINT;
G_SAGITTA;
G_BC;
G_CP2TOCP1ITEMS;
G_CHORDLENGTH;
G_CPCATEGORY;
G_MINVAL;
G_MAXVAL;
G_STEPSIZE;
G_CORRECTION;
G_LIFT;
G_STDVAL;
G_DIAMETERMIN;
G_DIAMETERMAX;
G_DIAMETERSTEPSIZE;
G_DIAMETERCP;
G_DIAMETERPERC;
G_HVIDBUFFER;
G_MEASUREMENTUNIT;
G_RELSAG;
G_YES;
G_NO;
G_THRESHOLD;
G_SUPPLIER_STILL_IN_USE;
G_CATEGORY_STILL_IN_USE;
G_TYPE_STILL_IN_USE;
G_NAMING;
G_GENERAL_NAMING;
G_POSITIVENAMING;
G_NEGATIVENAMING;
G_RELCHORD;
G_CHORDPERC;
G_LENSCOUNT;
G_LENSSETS;
G_ORDER_DATE;
G_ORDER_STATUS;
G_ORDERS;
G_ORDER;
G_TYPE_DROPDOWN;
G_SUPPLIER_DROPDOWN;
G_LANDINGZONE_DROPDOWN;
G_CATEGORY_DROPDOWN;
cancelled;
received;
sent;
ordered;
G_FITTEDLENS;
G_INCLUDELZINLENSNAME;
G_CP1SAGCP2PERCENTAGE;
G_DIAMETERINTERVAL;
G_DISPLAYLANDINGZONESTEPTYPE;
G_DISPLAYLANDINGZONECENTER;
G_DISPLAYLANDINGZONEPLUSEXTREMA;
G_DISPLAYLANDINGZONEMINEXTREMA;
Microns;
Steps;
G_EYEDATA;
G_CALCULATEDLZ;
G_LZPERCENTAGE;
G_CP1VALUE;
G_CP2VALUE;
G_USECP2TOCP1;
G_LENS_DROPDOWN;
G_PROCESS;
G_ExcelImport;
G_INVALIDFORMAT;
scleral;
soft;
orthok;
rgp;
hybrid;
sferic;
toric;
quad;
G_UNBOUND;
G_UNLISTEDCP2;
G_DETAIL_LENSSET;
G_DETAIL_LENSSUPPLIER;
G_DETAIL_USER;
G_DETAIL_USERGROUP;
G_DETAIL_CUSTOMER;
G_DETAIL_ORDER;
G_LENSFITTING;
G_LENSFITTING_ALGORITHM;

VAL_CPVM_SEMICHORDLENGTH;The length of the chord can not be negative.
VAL_LDVM_MINMAX;The minimum value has to be smaller than the maximum value.
VAL_CPVM_MINMAX;The minimum value can't be larger than the maximum value.
VAL_CPVM_STEP;The stepsize has to be larger than 0.
VAL_CPVM_MINMAXSTEP;The stepsize should divide the interval between the minimal and the maximum value in equally sized parts.
VAL_LDVM_LENSDIAMETER;The diameter of the lens or the minimum value, maximum value and the stepsize(absolute or procentual) should be entered.
VAL_CPVM_INVALID_FORMAT;The controlpoint naming may contain \'\{vars\}\' once, may contain \'\{name\}\' once and should contain no other \'\{\' and \'\}\'.
VAL_CP1VM_INVALID_FORMAT;The value naming of controlpoint 1 may contain \'\{var\}\' or \'\{var:abs\}\' once, may contain \'\{name\}\' once and should contain no other \'\{\' and \'\}\'.
VAL_CP2VM_INVALID_FORMAT;The value naming of controlpoint 2 may contain \'\{var\}\' or \'\{var:abs\}\' once, may contain \'\{name\}\' once and should contain no other \'\{\' and \'\}\'.
VAL_CP4VM_INVALID_FORMAT_POS;The positive value naming of controlpoint 4 may contain \'\{var\}\' or \'\{var:abs\}\' once, may contain \'\{name\}\' once and should contain no other \'\{\' and \'\}\'.
VAL_CP4VM_INVALID_FORMAT_NEG;The negative value naming of controlpoint 4 may contain \'\{var\}\' or \'\{var:abs\}\' once, may contain \'\{name\}\' once and should contain no other \'\{\' and \'\}\'.
VAL_CPVM_MISSINGSEMICHORDLENGTH;The chord length is required when not using relative length.
VAL_CPVM_MISSINGDIAMETERMULTIPLIER;The diameter fraction is required when using relative length.
VAL_CPVM_RELATIVESAGSTANDARDVAL;Standard values are required when using relative sagitta values.
VAL_CP1VM_MISSINGMAXVALUE;The maximum value in controlpoint 1 is required.
VAL_CP1VM_MISSINGMINVALUE;The minimum value in controlpoint 1 is required.
VAL_CP1VM_MISSINGSTEPSIZE;The stepsize in controlpoint 1 is required.
VAL_CP2VM_MISSINGMAXVALUE;The maximum value in controlpoint 2 is required.
VAL_CP2VM_MISSINGMINVALUE;The minimum value in controlpoint 2 is required.
VAL_CP2VM_MISSINGSTEPSIZE;The stepsize in controlpoint 2 is required.
VAL_CP4VM_MISSINGMAXVALUE;The maximum value in controlpoint 4 is required.
VAL_CP4VM_MISSINGMINVALUE;The minimum value in controlpoint 4 is required.
VAL_CP4VM_MISSINGSTEPSIZE;The stepsize in controlpoint 4 is required.
VAL_CPVM_MISSINGLZPERCENTAGE;Fraction of controlpoint 2 is required.
VAL_CPVM_MISSINGCP1SAGCP2PERCENTAGE;Fraction of controlpoint 2 is required.
VAL_CPVM_MISSINGCP2TOCP1ITEMS;The Conversion of CP2 to CP1 should contain entries.
VAL_CP4VM_MISSINGSTANDARDVAL;Standard values are mandatory in controlpoint 4.
VAL_LD_INVALIDTYPE;Invalid lenstype.
VAL_CP_INVALIDCATEGORY;Invalid category for controlpoint.
VAL_O_INVALIDSTATUS;Invalid status.

T_GENERAL_NAMING_EXAMPLE_CP1;Example: {name} {vars}<br>Result: BC 7,7 7,8
T_GENERAL_NAMING_EXAMPLE_CP2;Example: {name} {vars}<br>Result: SAG 4200 4300
T_GENERAL_NAMING_TOOLTIP_CP2;Rules:<br>  {name}: Name of controlpoint<br>  {vars}: The values of the controlpoints as defined in <em>Naming value</em>
T_GENERAL_NAMING_EXAMPLE_CP4;Example: {name} {vars}<br>Result: LZ 4 -3 4 -2
T_GENERAL_NAMING_TOOLTIP_CP4;Rules:<br>  {name}: Name of controlpoint<br>  {vars}: The values of the controlpoints as defined in <em>Naming positive value</em> and <em>Naming negative value</em>
T_NAMING_EXAMPLE_CP1;Example: {name} {var}<br>Result: BC 7,7
T_NAMING_EXAMPLE_CP2;Example: {name} {var}<br>Result: SAG 4200
T_NAMING_EXAMPLE_CP4_POSITIVE;Example: {name} flat {var}<br>Result: LZ flat 4
T_NAMING_EXAMPLE_CP4_NEGATIVE;Example: {name} steep {var}<br>Result: LZ steep -3
T_NAMING_TOOLTIP;Rules:<br>  {name}: Name of controlpoint<br>  {var}: Value of controlpoint<br>  {var:abs}: Absolute value of controlpoint<br>  {var:name}: Name associated with the value 

LN_WELCOME;vous souhaite la bienvenue !
LN_USERNAME;NOM D'UTILISATEUR
LN_PASSWORD;MOT DE PASSE
LN_CONFIRM_PASSWORD;CONFIRMEZ LE MOT DE PASSE
LN_LOGINERROR;Nom et mot de passe ne correspondent pas
LN_USERNAMEREQUIRED;Nom d'utilisateur est nécessaire
LN_PASSWORDREQUIRED;Mot de passe requis

SEC_EDITCREDENTIALS;Modifier les données de l'utilisateur

M_CUSTOMERS;Clients
M_SETTINGS;Parametres
M_ORDERS;Commandes
M_SECURITY;Securit&#233;
M_USERGROUPS;Groupes
M_USERS;Utilisateurs
M_LENSTYPE;
M_LENSTYPES;Types de lentilles
M_CONTROLPOINTCATEGORY;
M_CONTROLPOINTCATEGORIES;Catégorie de lentilles
M_LENSSUPPLIERS;Fournisseurs des lentilles
M_LENSES;Lentilles
M_LENS;Lens
M_LENSSET;Lensset
M_LENSSETS;Lenssets
M_CUSTOMER;Customer
M_LENSSETTINGS;Settings
M_LENSFITTING;Lensfitting
M_ALGORITHM;Algorithm

CUSU_EMAIL;Adresse e-mail
CUSU_LANGUAGE;Langue
CUSU_USERGROUP;Groupe d'utilisateur

E_ALGOPROB;The algorithm can't read the dataformat or the data in the lensset(s) is incomplete
E_NOLENS;No lensset selected